Using the package • tppr
…
#> $checkpoint_inf$next_checkpoint
#> [1] 2
#> 
#> $checkpoint_inf$last_row
#> [1] 86592
#> 
#> 
#> $esp_q_desc
#> # A tibble: 1 x 2
#>    mean    sd
#>   <dbl> <dbl>
#> 1  2.97  1.41
#> 
#> $first_rows_of_each_participant
#> # A tibble: 2,165 x 23
#>    timestamp participant_ID experimenter_ID… experimenter_AS… laboratory_ID_c…
#>    <chr>     <chr>          <chr>                       <dbl> <chr>           
#>  1 simulati… part_1         exp_9                           9 lab_5           
#>  2 simulati… part_10        exp_6                           6 lab_3           
#>  3 simulati… part_100       exp_7                           7 lab_4           
#>  4 simulati… part_1000      exp_9                           9 lab_5           
#>  5 simulati… part_1001      exp_2                           2 lab_1           
#>  6 simulati… part_1002      exp_2                           2 lab_1           
#>  7 simulati… part_1003      exp_4                           4 lab_2           
#>  8 simulati… part_1004      exp_4                           4 lab_2           
#>  9 simulati… part_1005      exp_6                           6 lab_3           
#> 10 simulati… part_1006      exp_4                           4 lab_2           
#> # … with 2,155 more rows, and 18 more variables: sitePI_ASGS_total_score <dbl>,
#> #   session_type <chr>, consent_screen_answer <chr>,
#> #   refused_to_answer_sexual_orientation_question <chr>, age <chr>, sex <chr>,
#> #   final_consent <chr>, ESP_Q_item_1 <chr>, ESP_Q_item_2 <chr>,
#> #   ESP_Q_item_3 <chr>, SS_Q_item_1 <chr>, SS_Q_item_2 <chr>,
#> #   trial_number <dbl>, guessed_side <chr>, target_side <chr>,
#> #   reward_type <chr>, sides_match <lgl>, row_counter <int>
…
#> 
#> $n_sessions_terminated
#> [1] 129
#> 
#> $n_sex_men
#> [1] 1111
#> 
#> $n_sex_women
#> [1] 1054
#> 
#> $n_target_side_left
#> [1] 1083
#> 
#> $processed_data
#> # A tibble: 51,457 x 23
#>    timestamp participant_ID experimenter_ID… experimenter_AS… laboratory_ID_c…
#>    <chr>     <chr>          <chr>                       <dbl> <chr>           
#>  1 simulati… part_1         exp_9                           9 lab_5           
#>  2 simulati… part_1         exp_9                           9 lab_5           
#>  3 simulati… part_1         exp_9                           9 lab_5           
#>  4 simulati… part_1         exp_9                           9 lab_5           
#>  5 simulati… part_1         exp_9                           9 lab_5           
#>  6 simulati… part_1         exp_9                           9 lab_5           
#>  7 simulati… part_1         exp_9                           9 lab_5           
#>  8 simulati… part_1         exp_9                           9 lab_5           
#>  9 simulati… part_1         exp_9                           9 lab_5           
#> 10 simulati… part_1         exp_9                           9 lab_5           
#> # … with 51,447 more rows, and 18 more variables:
#> #   sitePI_ASGS_total_score <dbl>, session_type <chr>,
#> #   consent_screen_answer <chr>,
#> #   refused_to_answer_sexual_orientation_question <chr>, age <chr>, sex <chr>,
#> #   final_consent <chr>, ESP_Q_item_1 <chr>, ESP_Q_item_2 <chr>,
#> #   ESP_Q_item_3 <chr>, SS_Q_item_1 <chr>, SS_Q_item_2 <chr>,
#> #   trial_number <dbl>, guessed_side <chr>, target_side <chr>,
#> #   reward_type <chr>, sides_match <lgl>, row_counter <int>
#> 
#> $processed_data_untilstudystop
#> # A tibble: 37,836 x 23
#>    timestamp participant_ID experimenter_ID… experimenter_AS… laboratory_ID_c…
#>    <chr>     <chr>          <chr>                       <dbl> <chr>           
#>  1 simulati… part_1         exp_9                           9 lab_5           
#>  2 simulati… part_1         exp_9                           9 lab_5           
#>  3 simulati… part_1         exp_9                           9 lab_5           
#>  4 simulati… part_1         exp_9                           9 lab_5           
#>  5 simulati… part_1         exp_9                           9 lab_5           
#>  6 simulati… part_1         exp_9                           9 lab_5           
#>  7 simulati… part_1         exp_9                           9 lab_5           
#>  8 simulati… part_1         exp_9                           9 lab_5           
#>  9 simulati… part_1         exp_9                           9 lab_5           
#> 10 simulati… part_1         exp_9                           9 lab_5           
#> # … with 37,826 more rows, and 18 more variables:
#> #   sitePI_ASGS_total_score <dbl>, session_type <chr>,
#> #   consent_screen_answer <chr>,
#> #   refused_to_answer_sexual_orientation_question <chr>, age <chr>, sex <chr>,
#> #   final_consent <chr>, ESP_Q_item_1 <chr>, ESP_Q_item_2 <chr>,
#> #   ESP_Q_item_3 <chr>, SS_Q_item_1 <chr>, SS_Q_item_2 <chr>,
#> #   trial_number <dbl>, guessed_side <chr>, target_side <chr>,
#> #   reward_type <chr>, sides_match <lgl>, row_counter <int>
…
#> 
#> $proportion_sessions_terminated
#> [1] 5.95843
#> 
#> $proportion_sex_men
#> [1] 51.3164
#> 
#> $proportion_sex_women
#> [1] 48.6836
#> 
#> $proportion_target_side_left
#> [1] 50.02309
#> 
#> $raw_data
#> # A tibble: 117,757 x 23
#>    timestamp participant_ID experimenter_ID… experimenter_AS… laboratory_ID_c…
#>    <chr>     <chr>          <chr>                       <dbl> <chr>           
#>  1 simulati… part_1         exp_9                           9 lab_5           
#>  2 simulati… part_1         exp_9                           9 lab_5           
#>  3 simulati… part_1         exp_9                           9 lab_5           
#>  4 simulati… part_1         exp_9                           9 lab_5           
#>  5 simulati… part_1         exp_9                           9 lab_5           
#>  6 simulati… part_1         exp_9                           9 lab_5           
#>  7 simulati… part_1         exp_9                           9 lab_5           
#>  8 simulati… part_1         exp_9                           9 lab_5           
#>  9 simulati… part_1         exp_9                           9 lab_5           
#> 10 simulati… part_1         exp_9                           9 lab_5           
#> # … with 117,747 more rows, and 18 more variables:
#> #   sitePI_ASGS_total_score <dbl>, session_type <chr>,
#> #   consent_screen_answer <chr>,
#> #   refused_to_answer_sexual_orientation_question <chr>, age <chr>, sex <chr>,
#> #   final_consent <chr>, ESP_Q_item_1 <chr>, ESP_Q_item_2 <chr>,
#> #   ESP_Q_item_3 <chr>, SS_Q_item_1 <chr>, SS_Q_item_2 <chr>,
#> #   trial_number <dbl>, guessed_side <chr>, target_side <chr>,
#> #   reward_type <chr>, sides_match <lgl>, row_counter <int>
#> 
#> $raw_data_untilstudystop
#> # A tibble: 86,592 x 23
#>    timestamp participant_ID experimenter_ID… experimenter_AS… laboratory_ID_c…
#>    <chr>     <chr>          <chr>                       <dbl> <chr>           
#>  1 simulati… part_1         exp_9                           9 lab_5           
#>  2 simulati… part_1         exp_9                           9 lab_5           
#>  3 simulati… part_1         exp_9                           9 lab_5           
#>  4 simulati… part_1         exp_9                           9 lab_5           
#>  5 simulati… part_1         exp_9                           9 lab_5           
#>  6 simulati… part_1         exp_9                           9 lab_5           
#>  7 simulati… part_1         exp_9                           9 lab_5           
#>  8 simulati… part_1         exp_9                           9 lab_5           
#>  9 simulati… part_1         exp_9                           9 lab_5           
#> 10 simulati… part_1         exp_9                           9 lab_5           
#> # … with 86,582 more rows, and 18 more variables:
#> #   sitePI_ASGS_total_score <dbl>, session_type <chr>,
#> #   consent_screen_answer <chr>,
#> #   refused_to_answer_sexual_orientation_question <chr>, age <chr>, sex <chr>,
#> #   final_consent <chr>, ESP_Q_item_1 <chr>, ESP_Q_item_2 <chr>,
#> #   ESP_Q_item_3 <chr>, SS_Q_item_1 <chr>, SS_Q_item_2 <chr>,
#> #   trial_number <dbl>, guessed_side <chr>, target_side <chr>,
#> #   reward_type <chr>, sides_match <lgl>, row_counter <int>
…
